%YAML 1.1
%TAG !u! tag:unity3d.com,2011:
--- !u!114 &11400000
MonoBehaviour:
  m_ObjectHideFlags: 0
  m_CorrespondingSourceObject: {fileID: 0}
  m_PrefabInstance: {fileID: 0}
  m_PrefabAsset: {fileID: 0}
  m_GameObject: {fileID: 0}
  m_Enabled: 1
  m_EditorHideFlags: 0
  m_Script: {fileID: 11500000, guid: 72d2b988cd4ac45469b5ee1a41228a6c, type: 3}
  m_Name: LevelData_1
  m_EditorClassIdentifier: 
  levelName: Assets/_PROJECT/Scenes/Levels/Level_1.unity
