%YAML 1.1
%TAG !u! tag:unity3d.com,2011:
--- !u!1045 &1
EditorBuildSettings:
  m_ObjectHideFlags: 0
  serializedVersion: 2
  m_Scenes:
  - enabled: 1
    path: Assets/_PROJECT/Scenes/Offline.unity
    guid: 99c9720ab356a0642a771bea13969a05
  - enabled: 1
    path: Assets/_PROJECT/Scenes/Online.unity
    guid: c4b71bb5d9d451f45abfc9a383927b89
  - enabled: 1
    path: Assets/_PROJECT/Scenes/Levels/Level_0.unity
    guid: abfb0d303ec2d62458170a0e7f22cf0b
  - enabled: 1
    path: Assets/_PROJECT/Scenes/Levels/Level_1.unity
    guid: 56068011cb9f11e45878010204f8291e
  m_configObjects: {}
